%YAML 1.1
%TAG !u! tag:unity3d.com,2011:
--- !u!21 &2100000
Material:
  serializedVersion: 6
  m_ObjectHideFlags: 0
  m_CorrespondingSourceObject: {fileID: 0}
  m_PrefabInstance: {fileID: 0}
  m_PrefabAsset: {fileID: 0}
  m_Name: PanContent
  m_Shader: {fileID: 4800000, guid: 5bdea20278144b11916d77503ba1467a, type: 3}
  m_ShaderKeywords: _ALPHABLEND_ON _DIRECTIONAL_LIGHT _DISABLE_ALBEDO_MAP _HOVER_LIGHT
    _REFLECTIONS _SPECULAR_HIGHLIGHTS
  m_LightmapFlags: 4
  m_EnableInstancingVariants: 0
  m_DoubleSidedGI: 0
  m_CustomRenderQueue: 3000
  stringTagMap:
    RenderType: Transparent
  disabledShaderPasses: []
  m_SavedProperties:
    serializedVersion: 3
    m_TexEnvs:
    - _BumpMap:
        m_Texture: {fileID: 0}
        m_Scale: {x: 1, y: 1}
        m_Offset: {x: 0, y: 0}
    - _ChannelMap:
        m_Texture: {fileID: 0}
        m_Scale: {x: 1, y: 1}
        m_Offset: {x: 0, y: 0}
    - _DetailAlbedoMap:
        m_Texture: {fileID: 0}
        m_Scale: {x: 1, y: 1}
        m_Offset: {x: 0, y: 0}
    - _DetailMask:
        m_Texture: {fileID: 0}
        m_Scale: {x: 1, y: 1}
        m_Offset: {x: 0, y: 0}
    - _DetailNormalMap:
        m_Texture: {fileID: 0}
        m_Scale: {x: 1, y: 1}
        m_Offset: {x: 0, y: 0}
    - _EmissionMap:
        m_Texture: {fileID: 0}
        m_Scale: {x: 0.25, y: 0.25}
        m_Offset: {x: 0, y: 0}
    - _IridescentSpectrumMap:
        m_Texture: {fileID: 0}
        m_Scale: {x: 1, y: 1}
        m_Offset: {x: 0, y: 0}
    - _MainTex:
        m_Texture: {fileID: 0}
        m_Scale: {x: 0.5, y: 0.3}
        m_Offset: {x: 0, y: 0}
    - _MetallicGlossMap:
        m_Texture: {fileID: 0}
        m_Scale: {x: 1, y: 1}
        m_Offset: {x: 0, y: 0}
    - _NormalMap:
        m_Texture: {fileID: 0}
        m_Scale: {x: 1, y: 1}
        m_Offset: {x: 0, y: 0}
    - _OcclusionMap:
        m_Texture: {fileID: 0}
        m_Scale: {x: 1, y: 1}
        m_Offset: {x: 0, y: 0}
    - _ParallaxMap:
        m_Texture: {fileID: 0}
        m_Scale: {x: 1, y: 1}
        m_Offset: {x: 0, y: 0}
    m_Floats:
    - _AlbedoAlphaMode: 0
    - _AlbedoAssignedAtRuntime: 0
    - _BlendOp: 0
    - _BorderLight: 0
    - _BorderLightOpaque: 0
    - _BorderLightOpaqueAlpha: 1
    - _BorderLightReplacesAlbedo: 0
    - _BorderLightUsesHoverColor: 0
    - _BorderMinValue: 0.1
    - _BorderWidth: 0.1
    - _BumpScale: 1
    - _ClippingBorder: 0
    - _ClippingBorderWidth: 0.025
    - _ClippingBox: 0
    - _ClippingPlane: 0
    - _ClippingSphere: 0
    - _ColorWriteMask: 15
    - _CullMode: 2
    - _CustomMode: 2
    - _Cutoff: 0.5
    - _DetailNormalMapScale: 1
    - _DirectionalLight: 1
    - _DstBlend: 10
    - _EdgeSmoothingValue: 0.002
    - _EnableChannelMap: 0
    - _EnableEmission: 0
    - _EnableHoverColorOverride: 0
    - _EnableLocalSpaceTriplanarMapping: 0
    - _EnableNormalMap: 0
    - _EnableTriplanarMapping: 0
    - _EnvironmentColorIntensity: 0.5
    - _EnvironmentColorThreshold: 1.5
    - _EnvironmentColoring: 0
    - _FadeBeginDistance: 0.85
    - _FadeCompleteDistance: 0.5
    - _GlossMapScale: 1
    - _Glossiness: 0.5
    - _GlossyReflections: 1
    - _HoverLight: 1
    - _InnerGlow: 0
    - _InnerGlowPower: 4
    - _InstancedColor: 0
    - _Iridescence: 0
    - _IridescenceAngle: -0.78
    - _IridescenceIntensity: 0.5
    - _IridescenceThreshold: 0.05
    - _Metallic: 0
    - _Mode: 2
    - _NearLightFade: 0
    - _NearPlaneFade: 0
    - _NormalMapScale: 1
    - _OcclusionStrength: 1
    - _Parallax: 0.02
    - _ProximityLight: 0
    - _ProximityLightTwoSided: 0
    - _Reflections: 1
    - _Refraction: 0
    - _RefractiveIndex: 0
    - _RenderQueueOverride: -1
    - _RimLight: 0
    - _RimPower: 0.25
    - _RoundCornerMargin: 0.01
    - _RoundCornerRadius: 0.25
    - _RoundCorners: 0
    - _Smoothness: 0.5
    - _SmoothnessTextureChannel: 0
    - _SpecularHighlights: 1
    - _SphericalHarmonics: 0
    - _SrcBlend: 5
    - _Stencil: 0
    - _StencilComparison: 0
    - _StencilOperation: 0
    - _StencilReference: 0
    - _TriplanarMappingBlendSharpness: 4
    - _UVSec: 0
    - _VertexColors: 0
    - _ZTest: 4
    - _ZWrite: 0
    m_Colors:
    - _ClippingBorderColor: {r: 1, g: 0.2, b: 0, a: 1}
    - _Color: {r: 1, g: 1, b: 1, a: 0}
    - _EmissionColor: {r: 0, g: 0, b: 0, a: 1}
    - _EmissiveColor: {r: 0, g: 0, b: 0, a: 1}
    - _EnvironmentColorX: {r: 1, g: 0, b: 0, a: 1}
    - _EnvironmentColorY: {r: 0, g: 1, b: 0, a: 1}
    - _EnvironmentColorZ: {r: 0, g: 0, b: 1, a: 1}
    - _HoverColorOverride: {r: 1, g: 1, b: 1, a: 1}
    - _InnerGlowColor: {r: 1, g: 1, b: 1, a: 0.75}
    - _RimColor: {r: 0.5, g: 0.5, b: 0.5, a: 1}
